// Jest Snapshot v1, https://goo.gl/fbAQLP

exports[`MessagesListItem.vue renders correctly 1`] = `
<div class="message primary">
  <!---->
  <div class="message-content"><span class="text">Hello</span> <span class="time-helper"></span> <span title="19:50 - 5/9/2018" class="time"><span>
                19:50
            </span> <span class="icon"><v-icon-stub>access_time</v-icon-stub></span></span>
  </div>
</div>
`;
