// Jest Snapshot v1, https://goo.gl/fbAQLP

exports[`RoomChatUsersDialog.vue renders correctly 1`] = `
<v-dialog-stub persistent="" scrollable="" no-click-animation="">
  <v-card-stub>
    <v-card-title-stub class="title pb-0">
      Usuarios conectados
    </v-card-title-stub>
    <v-card-text-stub>
      <roomchatuserslist-stub users="[object Object],[object Object]" self=""></roomchatuserslist-stub>
    </v-card-text-stub>
    <v-divider-stub></v-divider-stub>
    <v-card-actions-stub>
      <v-spacer-stub></v-spacer-stub>
      <v-btn-stub color="primary" flat="">
        Cerrar
      </v-btn-stub>
    </v-card-actions-stub>
  </v-card-stub>
</v-dialog-stub>
`;
