// Jest Snapshot v1, https://goo.gl/fbAQLP

exports[`RoomChatUsersListItem.vue renders correctly 1`] = `
<v-list-tile-stub title="test" class="">
  <v-list-tile-avatar-stub>
    <v-icon-stub>person</v-icon-stub>
  </v-list-tile-avatar-stub>
  <v-list-tile-content-stub>
    <v-list-tile-title-stub>test</v-list-tile-title-stub>
  </v-list-tile-content-stub>
</v-list-tile-stub>
`;
