// Jest Snapshot v1, https://goo.gl/fbAQLP

exports[`AppHeader.vue renders correctly 1`] = `
<div class="app-header mb-3">
  <div class="logo-area">
    <app-logo-stub></app-logo-stub>
  </div>
  <div class="title-area">
    <app-title-stub></app-title-stub>
  </div>
  <div class="buttons-area"></div>
</div>
`;
